[
    {
        "id_receta": 1,
        "id_user": 16,
        "puntuacion": 5,
        "favorito": 0,
        "opinion": "Lorem ipsum dolor sit amet consectetur adipisicing elit. Quod facere suscipit eius reiciendis quos. Ab cupiditate tempore nam sed consequuntur quidem neque quia, eaque itaque rem, est in doloribus pariatur?"
    }
    ,
    {
        "id_receta": 1,
        "id_user": 17,
        "puntuacion": 5,
        "favorito": 0,
        "opinion": "Lorem ipsum dolor sit amet consectetur adipisicing elit. Quod facere suscipit eius reiciendis quos. Ab cupiditate tempore nam sed consequuntur quidem neque quia, eaque itaque rem, est in doloribus pariatur?"
    }
    ,
    {
        "id_receta": 1,
        "id_user": 18,
        "puntuacion": 5,
        "favorito": 0,
        "opinion": "Lorem ipsum dolor sit amet consectetur adipisicing elit. Quod facere suscipit eius reiciendis quos. Ab cupiditate tempore nam sed consequuntur quidem neque quia, eaque itaque rem, est in doloribus pariatur?"
    }
    ,
    {
        "id_receta": 1,
        "id_user": 19,
        "puntuacion": 5,
        "favorito": 0,
        "opinion": "Lorem ipsum dolor sit amet consectetur adipisicing elit. Quod facere suscipit eius reiciendis quos. Ab cupiditate tempore nam sed consequuntur quidem neque quia, eaque itaque rem, est in doloribus pariatur?"
    }
    ,
    {
        "id_receta": 1,
        "id_user": 20,
        "puntuacion": 5,
        "favorito": 0,
        "opinion": "Lorem ipsum dolor sit amet consectetur adipisicing elit. Quod facere suscipit eius reiciendis quos. Ab cupiditate tempore nam sed consequuntur quidem neque quia, eaque itaque rem, est in doloribus pariatur?"
    },
    {
        "id_receta": 2,
        "id_user": 16,
        "puntuacion": 4,
        "favorito": 0,
        "opinion": "Lorem ipsum dolor sit amet consectetur adipisicing elit. Quod facere suscipit eius reiciendis quos. Ab cupiditate tempore nam sed consequuntur quidem neque quia, eaque itaque rem, est in doloribus pariatur?"
    }
    ,
    {
        "id_receta": 2,
        "id_user": 17,
        "puntuacion": 4,
        "favorito": 0,
        "opinion": "Lorem ipsum dolor sit amet consectetur adipisicing elit. Quod facere suscipit eius reiciendis quos. Ab cupiditate tempore nam sed consequuntur quidem neque quia, eaque itaque rem, est in doloribus pariatur?"
    }
    ,
    {
        "id_receta": 2,
        "id_user": 18,
        "puntuacion": 4,
        "favorito": 0,
        "opinion": "Lorem ipsum dolor sit amet consectetur adipisicing elit. Quod facere suscipit eius reiciendis quos. Ab cupiditate tempore nam sed consequuntur quidem neque quia, eaque itaque rem, est in doloribus pariatur?"
    }
    ,
    {
        "id_receta": 2,
        "id_user": 19,
        "puntuacion": 4,
        "favorito": 0,
        "opinion": "Lorem ipsum dolor sit amet consectetur adipisicing elit. Quod facere suscipit eius reiciendis quos. Ab cupiditate tempore nam sed consequuntur quidem neque quia, eaque itaque rem, est in doloribus pariatur?"
    }
    ,
    {
        "id_receta": 2,
        "id_user": 20,
        "puntuacion": 4,
        "favorito": 0,
        "opinion": "Lorem ipsum dolor sit amet consectetur adipisicing elit. Quod facere suscipit eius reiciendis quos. Ab cupiditate tempore nam sed consequuntur quidem neque quia, eaque itaque rem, est in doloribus pariatur?"
    },
    {
        "id_receta": 3,
        "id_user": 16,
        "puntuacion": 2,
        "favorito": 0,
        "opinion": "Lorem ipsum dolor sit amet consectetur adipisicing elit. Quod facere suscipit eius reiciendis quos. Ab cupiditate tempore nam sed consequuntur quidem neque quia, eaque itaque rem, est in doloribus pariatur?"
    }
    ,
    {
        "id_receta": 3,
        "id_user": 17,
        "puntuacion": 2,
        "favorito": 0,
        "opinion": "Lorem ipsum dolor sit amet consectetur adipisicing elit. Quod facere suscipit eius reiciendis quos. Ab cupiditate tempore nam sed consequuntur quidem neque quia, eaque itaque rem, est in doloribus pariatur?"
    }
    ,
    {
        "id_receta": 3,
        "id_user": 18,
        "puntuacion": 2,
        "favorito": 0,
        "opinion": "Lorem ipsum dolor sit amet consectetur adipisicing elit. Quod facere suscipit eius reiciendis quos. Ab cupiditate tempore nam sed consequuntur quidem neque quia, eaque itaque rem, est in doloribus pariatur?"
    }
    ,
    {
        "id_receta": 3,
        "id_user": 19,
        "puntuacion": 2,
        "favorito": 0,
        "opinion": "Lorem ipsum dolor sit amet consectetur adipisicing elit. Quod facere suscipit eius reiciendis quos. Ab cupiditate tempore nam sed consequuntur quidem neque quia, eaque itaque rem, est in doloribus pariatur?"
    }
    ,
    {
        "id_receta": 3,
        "id_user": 20,
        "puntuacion": 2,
        "favorito": 0,
        "opinion": "Lorem ipsum dolor sit amet consectetur adipisicing elit. Quod facere suscipit eius reiciendis quos. Ab cupiditate tempore nam sed consequuntur quidem neque quia, eaque itaque rem, est in doloribus pariatur?"
    },
    {
        "id_receta": 4,
        "id_user": 16,
        "puntuacion": 5,
        "favorito": 0,
        "opinion": "Lorem ipsum dolor sit amet consectetur adipisicing elit. Quod facere suscipit eius reiciendis quos. Ab cupiditate tempore nam sed consequuntur quidem neque quia, eaque itaque rem, est in doloribus pariatur?"
    }
    ,
    {
        "id_receta": 4,
        "id_user": 17,
        "puntuacion": 5,
        "favorito": 0,
        "opinion": "Lorem ipsum dolor sit amet consectetur adipisicing elit. Quod facere suscipit eius reiciendis quos. Ab cupiditate tempore nam sed consequuntur quidem neque quia, eaque itaque rem, est in doloribus pariatur?"
    }
    ,
    {
        "id_receta": 4,
        "id_user": 18,
        "puntuacion": 5,
        "favorito": 0,
        "opinion": "Lorem ipsum dolor sit amet consectetur adipisicing elit. Quod facere suscipit eius reiciendis quos. Ab cupiditate tempore nam sed consequuntur quidem neque quia, eaque itaque rem, est in doloribus pariatur?"
    }
    ,
    {
        "id_receta": 4,
        "id_user": 19,
        "puntuacion": 5,
        "favorito": 0,
        "opinion": "Lorem ipsum dolor sit amet consectetur adipisicing elit. Quod facere suscipit eius reiciendis quos. Ab cupiditate tempore nam sed consequuntur quidem neque quia, eaque itaque rem, est in doloribus pariatur?"
    }
    ,
    {
        "id_receta": 5,
        "id_user": 16,
        "puntuacion": 5,
        "favorito": 0,
        "opinion": "Lorem ipsum dolor sit amet consectetur adipisicing elit. Quod facere suscipit eius reiciendis quos. Ab cupiditate tempore nam sed consequuntur quidem neque quia, eaque itaque rem, est in doloribus pariatur?"
    }
    ,
    {
        "id_receta": 5,
        "id_user": 17,
        "puntuacion": 5,
        "favorito": 0,
        "opinion": "Lorem ipsum dolor sit amet consectetur adipisicing elit. Quod facere suscipit eius reiciendis quos. Ab cupiditate tempore nam sed consequuntur quidem neque quia, eaque itaque rem, est in doloribus pariatur?"
    }
    ,
    {
        "id_receta": 5,
        "id_user": 18,
        "puntuacion": 5,
        "favorito": 0,
        "opinion": "Lorem ipsum dolor sit amet consectetur adipisicing elit. Quod facere suscipit eius reiciendis quos. Ab cupiditate tempore nam sed consequuntur quidem neque quia, eaque itaque rem, est in doloribus pariatur?"
    }
    ,
    {
        "id_receta": 5,
        "id_user": 20,
        "puntuacion": 5,
        "favorito": 0,
        "opinion": "Lorem ipsum dolor sit amet consectetur adipisicing elit. Quod facere suscipit eius reiciendis quos. Ab cupiditate tempore nam sed consequuntur quidem neque quia, eaque itaque rem, est in doloribus pariatur?"
    }
    ,
    {
        "id_receta": 6,
        "id_user": 16,
        "puntuacion": 5,
        "favorito": 0,
        "opinion": "Lorem ipsum dolor sit amet consectetur adipisicing elit. Quod facere suscipit eius reiciendis quos. Ab cupiditate tempore nam sed consequuntur quidem neque quia, eaque itaque rem, est in doloribus pariatur?"
    }
    ,
    {
        "id_receta": 6,
        "id_user": 17,
        "puntuacion": 5,
        "favorito": 0,
        "opinion": "Lorem ipsum dolor sit amet consectetur adipisicing elit. Quod facere suscipit eius reiciendis quos. Ab cupiditate tempore nam sed consequuntur quidem neque quia, eaque itaque rem, est in doloribus pariatur?"
    }
    ,
    {
        "id_receta": 6,
        "id_user": 19,
        "puntuacion": 5,
        "favorito": 0,
        "opinion": "Lorem ipsum dolor sit amet consectetur adipisicing elit. Quod facere suscipit eius reiciendis quos. Ab cupiditate tempore nam sed consequuntur quidem neque quia, eaque itaque rem, est in doloribus pariatur?"
    }
    ,
    {
        "id_receta": 6,
        "id_user": 20,
        "puntuacion": 5,
        "favorito": 0,
        "opinion": "Lorem ipsum dolor sit amet consectetur adipisicing elit. Quod facere suscipit eius reiciendis quos. Ab cupiditate tempore nam sed consequuntur quidem neque quia, eaque itaque rem, est in doloribus pariatur?"
    }
    ,
    {
        "id_receta": 7,
        "id_user": 16,
        "puntuacion": 5,
        "favorito": 0,
        "opinion": "Lorem ipsum dolor sit amet consectetur adipisicing elit. Quod facere suscipit eius reiciendis quos. Ab cupiditate tempore nam sed consequuntur quidem neque quia, eaque itaque rem, est in doloribus pariatur?"
    }
    ,
    {
        "id_receta": 7,
        "id_user": 18,
        "puntuacion": 5,
        "favorito": 0,
        "opinion": "Lorem ipsum dolor sit amet consectetur adipisicing elit. Quod facere suscipit eius reiciendis quos. Ab cupiditate tempore nam sed consequuntur quidem neque quia, eaque itaque rem, est in doloribus pariatur?"
    }
    ,
    {
        "id_receta": 7,
        "id_user": 19,
        "puntuacion": 5,
        "favorito": 0,
        "opinion": "Lorem ipsum dolor sit amet consectetur adipisicing elit. Quod facere suscipit eius reiciendis quos. Ab cupiditate tempore nam sed consequuntur quidem neque quia, eaque itaque rem, est in doloribus pariatur?"
    }
    ,
    {
        "id_receta": 7,
        "id_user": 20,
        "puntuacion": 5,
        "favorito": 0,
        "opinion": "Lorem ipsum dolor sit amet consectetur adipisicing elit. Quod facere suscipit eius reiciendis quos. Ab cupiditate tempore nam sed consequuntur quidem neque quia, eaque itaque rem, est in doloribus pariatur?"
    }
    ,
    {
        "id_receta": 8,
        "id_user": 17,
        "puntuacion": 5,
        "favorito": 0,
        "opinion": "Lorem ipsum dolor sit amet consectetur adipisicing elit. Quod facere suscipit eius reiciendis quos. Ab cupiditate tempore nam sed consequuntur quidem neque quia, eaque itaque rem, est in doloribus pariatur?"
    }
    ,
    {
        "id_receta": 8,
        "id_user": 18,
        "puntuacion": 5,
        "favorito": 0,
        "opinion": "Lorem ipsum dolor sit amet consectetur adipisicing elit. Quod facere suscipit eius reiciendis quos. Ab cupiditate tempore nam sed consequuntur quidem neque quia, eaque itaque rem, est in doloribus pariatur?"
    }
    ,
    {
        "id_receta": 8,
        "id_user": 19,
        "puntuacion": 5,
        "favorito": 0,
        "opinion": "Lorem ipsum dolor sit amet consectetur adipisicing elit. Quod facere suscipit eius reiciendis quos. Ab cupiditate tempore nam sed consequuntur quidem neque quia, eaque itaque rem, est in doloribus pariatur?"
    }
    ,
    {
        "id_receta": 8,
        "id_user": 20,
        "puntuacion": 5,
        "favorito": 0,
        "opinion": "Lorem ipsum dolor sit amet consectetur adipisicing elit. Quod facere suscipit eius reiciendis quos. Ab cupiditate tempore nam sed consequuntur quidem neque quia, eaque itaque rem, est in doloribus pariatur?"
    }
    ,
    {
        "id_receta": 11,
        "id_user": 21,
        "puntuacion": 5,
        "favorito": 0,
        "opinion": "Lorem ipsum dolor sit amet consectetur adipisicing elit. Quod facere suscipit eius reiciendis quos. Ab cupiditate tempore nam sed consequuntur quidem neque quia, eaque itaque rem, est in doloribus pariatur?"
    }
    ,
    {
        "id_receta": 11,
        "id_user": 22,
        "puntuacion": 5,
        "favorito": 0,
        "opinion": "Lorem ipsum dolor sit amet consectetur adipisicing elit. Quod facere suscipit eius reiciendis quos. Ab cupiditate tempore nam sed consequuntur quidem neque quia, eaque itaque rem, est in doloribus pariatur?"
    }
    ,
    {
        "id_receta": 11,
        "id_user": 23,
        "puntuacion": 5,
        "favorito": 0,
        "opinion": "Lorem ipsum dolor sit amet consectetur adipisicing elit. Quod facere suscipit eius reiciendis quos. Ab cupiditate tempore nam sed consequuntur quidem neque quia, eaque itaque rem, est in doloribus pariatur?"
    }
    ,
    {
        "id_receta": 12,
        "id_user": 21,
        "puntuacion": 5,
        "favorito": 0,
        "opinion": "Lorem ipsum dolor sit amet consectetur adipisicing elit. Quod facere suscipit eius reiciendis quos. Ab cupiditate tempore nam sed consequuntur quidem neque quia, eaque itaque rem, est in doloribus pariatur?"
    }
    ,
    {
        "id_receta": 12,
        "id_user": 22,
        "puntuacion": 5,
        "favorito": 0,
        "opinion": "Lorem ipsum dolor sit amet consectetur adipisicing elit. Quod facere suscipit eius reiciendis quos. Ab cupiditate tempore nam sed consequuntur quidem neque quia, eaque itaque rem, est in doloribus pariatur?"
    }
    ,
    {
        "id_receta": 12,
        "id_user": 23,
        "puntuacion": 5,
        "favorito": 0,
        "opinion": "Lorem ipsum dolor sit amet consectetur adipisicing elit. Quod facere suscipit eius reiciendis quos. Ab cupiditate tempore nam sed consequuntur quidem neque quia, eaque itaque rem, est in doloribus pariatur?"
    }
    ,
    {
        "id_receta": 13,
        "id_user": 21,
        "puntuacion": 5,
        "favorito": 0,
        "opinion": "Lorem ipsum dolor sit amet consectetur adipisicing elit. Quod facere suscipit eius reiciendis quos. Ab cupiditate tempore nam sed consequuntur quidem neque quia, eaque itaque rem, est in doloribus pariatur?"
    }
    ,
    {
        "id_receta": 13,
        "id_user": 22,
        "puntuacion": 5,
        "favorito": 0,
        "opinion": "Lorem ipsum dolor sit amet consectetur adipisicing elit. Quod facere suscipit eius reiciendis quos. Ab cupiditate tempore nam sed consequuntur quidem neque quia, eaque itaque rem, est in doloribus pariatur?"
    }
    ,
    {
        "id_receta": 13,
        "id_user": 23,
        "puntuacion": 5,
        "favorito": 0,
        "opinion": "Lorem ipsum dolor sit amet consectetur adipisicing elit. Quod facere suscipit eius reiciendis quos. Ab cupiditate tempore nam sed consequuntur quidem neque quia, eaque itaque rem, est in doloribus pariatur?"
    }
    ,
    {
        "id_receta": 14,
        "id_user": 21,
        "puntuacion": 5,
        "favorito": 0,
        "opinion": "Lorem ipsum dolor sit amet consectetur adipisicing elit. Quod facere suscipit eius reiciendis quos. Ab cupiditate tempore nam sed consequuntur quidem neque quia, eaque itaque rem, est in doloribus pariatur?"
    }
    ,
    {
        "id_receta": 14,
        "id_user": 22,
        "puntuacion": 5,
        "favorito": 0,
        "opinion": "Lorem ipsum dolor sit amet consectetur adipisicing elit. Quod facere suscipit eius reiciendis quos. Ab cupiditate tempore nam sed consequuntur quidem neque quia, eaque itaque rem, est in doloribus pariatur?"
    }
    ,
    {
        "id_receta": 14,
        "id_user": 23,
        "puntuacion": 5,
        "favorito": 0,
        "opinion": "Lorem ipsum dolor sit amet consectetur adipisicing elit. Quod facere suscipit eius reiciendis quos. Ab cupiditate tempore nam sed consequuntur quidem neque quia, eaque itaque rem, est in doloribus pariatur?"
    }
    ,
    {
        "id_receta": 15,
        "id_user": 21,
        "puntuacion": 5,
        "favorito": 0,
        "opinion": "Lorem ipsum dolor sit amet consectetur adipisicing elit. Quod facere suscipit eius reiciendis quos. Ab cupiditate tempore nam sed consequuntur quidem neque quia, eaque itaque rem, est in doloribus pariatur?"
    }
    ,
    {
        "id_receta": 15,
        "id_user": 23,
        "puntuacion": 5,
        "favorito": 0,
        "opinion": "Lorem ipsum dolor sit amet consectetur adipisicing elit. Quod facere suscipit eius reiciendis quos. Ab cupiditate tempore nam sed consequuntur quidem neque quia, eaque itaque rem, est in doloribus pariatur?"
    }
    ,
    {
        "id_receta": 16,
        "id_user": 21,
        "puntuacion": 5,
        "favorito": 0,
        "opinion": "Lorem ipsum dolor sit amet consectetur adipisicing elit. Quod facere suscipit eius reiciendis quos. Ab cupiditate tempore nam sed consequuntur quidem neque quia, eaque itaque rem, est in doloribus pariatur?"
    }
    ,
    {
        "id_receta": 17,
        "id_user": 23,
        "puntuacion": 5,
        "favorito": 0,
        "opinion": "Lorem ipsum dolor sit amet consectetur adipisicing elit. Quod facere suscipit eius reiciendis quos. Ab cupiditate tempore nam sed consequuntur quidem neque quia, eaque itaque rem, est in doloribus pariatur?"
    }
    ,
    {
        "id_receta": 18,
        "id_user": 21,
        "puntuacion": 5,
        "favorito": 0,
        "opinion": "Lorem ipsum dolor sit amet consectetur adipisicing elit. Quod facere suscipit eius reiciendis quos. Ab cupiditate tempore nam sed consequuntur quidem neque quia, eaque itaque rem, est in doloribus pariatur?"
    }
    ,
    {
        "id_receta": 19,
        "id_user": 23,
        "puntuacion": 5,
        "favorito": 0,
        "opinion": "Lorem ipsum dolor sit amet consectetur adipisicing elit. Quod facere suscipit eius reiciendis quos. Ab cupiditate tempore nam sed consequuntur quidem neque quia, eaque itaque rem, est in doloribus pariatur?"
    }
    ,
    {
        "id_receta": 20,
        "id_user": 21,
        "puntuacion": 5,
        "favorito": 0,
        "opinion": "Lorem ipsum dolor sit amet consectetur adipisicing elit. Quod facere suscipit eius reiciendis quos. Ab cupiditate tempore nam sed consequuntur quidem neque quia, eaque itaque rem, est in doloribus pariatur?"
    }
    ,
    {
        "id_receta": 20,
        "id_user": 23,
        "puntuacion": 5,
        "favorito": 0,
        "opinion": "Lorem ipsum dolor sit amet consectetur adipisicing elit. Quod facere suscipit eius reiciendis quos. Ab cupiditate tempore nam sed consequuntur quidem neque quia, eaque itaque rem, est in doloribus pariatur?"
    }
    ,
    {
        "id_receta": 21,
        "id_user": 21,
        "puntuacion": 5,
        "favorito": 0,
        "opinion": "Lorem ipsum dolor sit amet consectetur adipisicing elit. Quod facere suscipit eius reiciendis quos. Ab cupiditate tempore nam sed consequuntur quidem neque quia, eaque itaque rem, est in doloribus pariatur?"
    }
    ,
    {
        "id_receta": 21,
        "id_user": 23,
        "puntuacion": 5,
        "favorito": 0,
        "opinion": "Lorem ipsum dolor sit amet consectetur adipisicing elit. Quod facere suscipit eius reiciendis quos. Ab cupiditate tempore nam sed consequuntur quidem neque quia, eaque itaque rem, est in doloribus pariatur?"
    }
]
